Count_2011_Run_
…
G11$DATE <- as.Date(G11$DATE, format = "%Y-%m-%d") # Changing to Date format
colnames(G11)[colnames(G11)=="DATE"] <- "Date"

Dz_11Total<-G11 %>% group_by(Date) %>% summarize(Total_2011_Gen=sum(`TOTAL`),n=n())
Dz_11Goreway<-G11 %>% group_by(Date) %>% summarize(Goreway_2011_Total=sum(`SITHE GOREWAY`),n=n())

Dz_11Halton<-G11 %>% group_by(Date) %>% summarize(Halton_2011_Total=sum(HALTONHILLS),n=n())
Dz_11Portland<-G11 %>% group_by(Date) %>% summarize(Portlands_2011_Total=sum(PORTLANDS),n=n())
Dz_11Greenfeild<-G11 %>% group_by(Date) %>% summarize(GEC_2011_Total=sum(`GREENFIELD ENERGY CENTRE`),n=n())
Dz_11Brighton<-G11 %>% group_by(Date) %>% summarize(Brigton_2011_Total=sum(`BRIGHTON BEACH`),n=n())
Dz_11GB<-cbind(Dz_11Total[,-3],Dz_11Goreway[,2],Dz_11Halton[,2],Dz_11Portland[,2],Dz_11Greenfeild[,2],Dz_11Brighton[,2])
Dz_11Goreway

## # A tibble: 365 x 3
##    Date       Goreway_2011_Total     n
##    <date>                  <dbl> <int>
##  1 2011-01-01                  0    24
##  2 2011-01-02                  0    24
##  3 2011-01-03               5807    24
##  4 2011-01-04               8077    24
##  5 2011-01-05              10289    24
##  6 2011-01-06              12158    24
##  7 2011-01-07               6709    24
##  8 2011-01-08               9799    24
##  9 2011-01-09               9480    24
## 10 2011-01-10              14599    24
## # ... with 355 more rows
…
