Count_2010_Run_.utf8.md
…
G10$DATE <- as.Date(G10$DATE, format = "%Y-%m-%d") # Changing to Date format
colnames(G10)[colnames(G10)=="DATE"] <- "Date"

##11$Date <- as.Date(G12$Date, format = "%Y-%m-%d") # Changing to Date format
Dz_10Total<-G10 %>% group_by(Date) %>% summarize(Total_2010_Gen=sum(`TOTAL`),n=n())
Dz_10Goreway<-G10 %>% group_by(Date) %>% summarize(Goreway_2010_Total=sum(`SITHE GOREWAY`),n=n())

Dz_10Halton<-G10 %>% group_by(Date) %>% summarize(Halton_2010_Total=sum(HALTONHILLS),n=n())
Dz_10Portland<-G10 %>% group_by(Date) %>% summarize(Portlands_2010_Total=sum(PORTLANDS),n=n())
Dz_10Greenfeild<-G10 %>% group_by(Date) %>% summarize(GEC_2010_Total=sum(`GREENFIELD ENERGY CENTRE`),n=n())
Dz_10Brighton<-G10 %>% group_by(Date) %>% summarize(Brigton_2010_Total=sum(`BRIGHTON BEACH`),n=n())
Dz_10GB<-cbind(Dz_10Total[,-3],Dz_10Goreway[,2],Dz_10Halton[,2],Dz_10Portland[,2],Dz_10Greenfeild[,2],Dz_10Brighton[,2])
Dz_10Goreway

## # A tibble: 366 x 3
##    Date       Goreway_2010_Total     n
##    <date>                  <dbl> <int>
##  1 2010-01-01                  0    24
##  2 2010-01-02                  0    24
##  3 2010-01-03                 11    24
##  4 2010-01-04               6423    24
##  5 2010-01-05               3168    24
##  6 2010-01-06               5513    24
##  7 2010-01-07               6166    24
##  8 2010-01-08               5968    24
##  9 2010-01-09                432    24
## 10 2010-01-10                  0    24
## # ... with 356 more rows
…
